Hands-on Practical: Generalised Additive Models (GAMs) with Bioluminescence
…
# Count how many observations we have per nest
owls %>%
  group_by(Nest) %>%
  count() %>%
  arrange(desc(n)) %>%
  print(n = 10)

## # A tibble: 27 × 2
## # Groups:   Nest [27]
##    Nest            n
##    <fct>       <int>
##  1 Oleyes         52
##  2 Montet         41
##  3 Etrabloz       34
##  4 Yvonnand       34
##  5 Champmartin    30
##  6 Lucens         29
##  7 AutavauxTV     28
##  8 Marnand        27
##  9 Franex         26
## 10 Seiry          26
## # ℹ 17 more rows
…
    # Extract key information
    data.frame(
      slope = coef(model)["ArrivalTime"],
      intercept = coef(model)["(Intercept)"],
      n_obs = nrow(.)
    )
  }) %>%
  ungroup()

# Look at the results
print(nest_results, n = 15)

## # A tibble: 27 × 4
##    Nest              slope intercept n_obs
##    <fct>             <dbl>     <dbl> <int>
##  1 AutavauxTV       0.128    -2.05      28
##  2 Bochet          -0.582    15.0       23
##  3 Champmartin     -0.196     5.51      30
##  4 ChEsard         -0.298     9.61      20
##  5 Chevroux         0.537   -13.1       10
##  6 CorcellesFavres  0.117    -1.31      12
##  7 Etrabloz         0.137    -2.47      34
##  8 Forel           -0.0194    0.0455     4
##  9 Franex           0.0927   -0.960     26
## 10 GDLV            -0.276     8.46      10
## 11 Gletterens      -0.308     8.52      15
## 12 Henniez         -0.388     9.69      13
## 13 Jeuss           -0.152     4.48      19
## 14 LesPlanches      0.0220   -0.0540    17
## 15 Lucens          -0.0992    3.84      29
## # ℹ 12 more rows
…
