GLMs Lab: Count & Proportion Data
…
# Step 4: Generate observed counts
TOT.N <- rnbinom(n, mu = mu, size = theta)      # Hint: use a random negative binomial distribution

# Step 5: Create final dataset merging TOT.N, OPEN.L, D.PARK, & L.WAT.C
datC <- tibble(TOT.N, OPEN.L, D.PARK, L.WAT.C)
datC

## # A tibble: 600 × 4
##    TOT.N OPEN.L D.PARK L.WAT.C
##    <dbl>  <dbl>  <dbl>   <dbl>
##  1     3  28.8   1186.   4.29 
##  2     5  78.8   3432.   4.44 
##  3     3  40.9   1129.   2.45 
##  4     2  88.3   1592.   3.59 
##  5     1  94.0    870.   2.43 
##  6    11   4.56  4007.   4.94 
##  7     1  52.8    731.   0.324
##  8     3  89.2   4114.   0.788
##  9     6  55.1   1655.   3.93 
## 10     1  45.7   1871.   2.71 
## # ℹ 590 more rows
…
