Hands-on Practical: Linear Regression
…
## Rows: 45 Columns: 3
## ── Column specification ────────────────────────────────────────────────────────
## Delimiter: "\t"
## dbl (3): concentration, biomass, nutrient
## 
## ℹ Use `spec()` to retrieve the full column specification for this data.
## ℹ Specify the column types or set `show_col_types = FALSE` to quiet this message.

Nereis

## # A tibble: 45 × 3
##    concentration biomass nutrient
##            <dbl>   <dbl>    <dbl>
##  1         0.05      0          1
##  2         0.105     0          1
##  3         0.105     0          1
##  4         0.79      0.5        1
##  5         0.21      0.5        1
##  6         2.1       0.5        1
##  7         1.16      1          1
##  8         1.00      1          1
##  9         0.523     1          1
## 10         1.16      1.5        1
## # ℹ 35 more rows
…
Build ggplot2 versions of standard diagnostics using

Hint: you can use the broom::augment()
to add the fitted, residuals,
std.resid to the data table.

###Crate a Dataset with fitted values, residuals, and standarzied residuals
aug <- Nereis|> mutate(.fitted = predict(mod_multi),## Add the fitted values to Nereis
                    .resid = residuals(mod_multi),## Add the residuals to Nereis
                    .std.resid= rstandard(mod_multi) ## Add the Standarized residuals to Nereis
                    )
aug

## # A tibble: 45 × 7
##    concentration biomass nutrient   obs .fitted .resid .std.resid
##            <dbl>   <dbl> <fct>    <int>   <dbl>  <dbl>      <dbl>
##  1         0.05      0   1            1   0.867 -0.817     -1.04 
##  2         0.094     0   3            2   0.385 -0.291     -0.370
##  3         0.105     0   1            3   0.867 -0.762     -0.971
##  4         0.105     0   1            4   0.867 -0.762     -0.971
##  5         0.122     0   3            5   0.385 -0.263     -0.334
##  6         0.169     0   3            6   0.385 -0.215     -0.274
##  7         0.21      0.5 1            7   0.973 -0.763     -0.954
##  8         0.338     0.5 3            8   0.491 -0.152     -0.190
##  9         0.404     2   3            9   0.809 -0.405     -0.516
## 10         0.42      1.5 1           10   1.19  -0.765     -0.957
## # ℹ 35 more rows
…
